index,D_0__Archaea,D_0__Bacteria,Unassigned,BarcodeSequence,LinkerPrimerSequence,Description,Año,sedimento/agua
2635-S-N0500,939.0,61765.0,300.0,None,None,2635-S,2018.0,Sedimento
2635-W-N0507,0.0,82804.0,23.0,None,None,2635-W,2018.0,Agua
2643-S-N0501,932.0,65471.0,282.0,None,None,2643-S,2018.0,Sedimento
2643-W-N0508,0.0,66066.0,54.0,None,None,2643-W,2018.0,Agua
2648-S-N0502,299.0,56895.0,156.0,None,None,2648-S,2018.0,Sedimento
2648-W-N0509,30.0,59739.0,95.0,None,None,2648-W,2018.0,Agua
2649-S-N0503,94.0,66884.0,60.0,None,None,2649-S,2018.0,Sedimento
2649-W-N0510,0.0,42675.0,13.0,None,None,2649-W,2018.0,Agua
2650-S-N0504,188.0,51047.0,44.0,None,None,2650-S,2018.0,Sedimento
2651-S-N0505,14.0,46743.0,33.0,None,None,2651-S,2018.0,Sedimento
2651-W-N0511,3.0,46902.0,53.0,None,None,2651-W,2018.0,Agua
2652-S-N0506,460.0,67093.0,60.0,None,None,2652-S,2018.0,Sedimento
2652-W-N0512,0.0,24466.0,9.0,None,None,2652-W,2018.0,Agua
