index,D_0__Archaea;D_1__Altiarchaeota,D_0__Archaea;D_1__Asgardaeota,D_0__Archaea;D_1__Crenarchaeota,D_0__Archaea;D_1__Diapherotrites,D_0__Archaea;D_1__Euryarchaeota,D_0__Archaea;D_1__Nanoarchaeaeota,D_0__Bacteria;D_1__Acetothermia,D_0__Bacteria;D_1__Acidobacteria,D_0__Bacteria;D_1__Actinobacteria,D_0__Bacteria;D_1__Aegiribacteria,D_0__Bacteria;D_1__Armatimonadetes,D_0__Bacteria;D_1__Atribacteria,D_0__Bacteria;D_1__BHI80-139,D_0__Bacteria;D_1__BRC1,D_0__Bacteria;D_1__Bacteroidetes,D_0__Bacteria;D_1__CK-2C2-2,D_0__Bacteria;D_1__Caldiserica,D_0__Bacteria;D_1__Calditrichaeota,D_0__Bacteria;D_1__Chlamydiae,D_0__Bacteria;D_1__Chloroflexi,D_0__Bacteria;D_1__Cloacimonetes,D_0__Bacteria;D_1__Cyanobacteria,D_0__Bacteria;D_1__Dadabacteria,D_0__Bacteria;D_1__Deinococcus-Thermus,D_0__Bacteria;D_1__Dependentiae,D_0__Bacteria;D_1__Elusimicrobia,D_0__Bacteria;D_1__Epsilonbacteraeota,D_0__Bacteria;D_1__FCPU426,D_0__Bacteria;D_1__Fibrobacteres,D_0__Bacteria;D_1__Firmicutes,D_0__Bacteria;D_1__Fusobacteria,D_0__Bacteria;D_1__Gemmatimonadetes,D_0__Bacteria;D_1__Halanaerobiaeota,D_0__Bacteria;D_1__Hydrogenedentes,D_0__Bacteria;D_1__Kiritimatiellaeota,D_0__Bacteria;D_1__LCP-89,D_0__Bacteria;D_1__Latescibacteria,D_0__Bacteria;D_1__Lentisphaerae,D_0__Bacteria;D_1__MAT-CR-M4-B07,D_0__Bacteria;D_1__Margulisbacteria,D_0__Bacteria;D_1__Marinimicrobia (SAR406 clade),D_0__Bacteria;D_1__Modulibacteria,D_0__Bacteria;D_1__Nitrospirae,D_0__Bacteria;D_1__Omnitrophicaeota,D_0__Bacteria;D_1__Patescibacteria,D_0__Bacteria;D_1__Planctomycetes,D_0__Bacteria;D_1__Proteobacteria,D_0__Bacteria;D_1__Spirochaetes,D_0__Bacteria;D_1__Synergistetes,D_0__Bacteria;D_1__TA06,D_0__Bacteria;D_1__Tenericutes,D_0__Bacteria;D_1__Thermotogae,D_0__Bacteria;D_1__Verrucomicrobia,D_0__Bacteria;D_1__WOR-1,D_0__Bacteria;D_1__WPS-2,D_0__Bacteria;D_1__WS2,D_0__Bacteria;D_1__WS4,D_0__Bacteria;D_1__Zixibacteria,D_0__Bacteria;__,Unassigned;__,BarcodeSequence,LinkerPrimerSequence,Description,Año,sedimento/agua
2635-S-N0500,20.0,20.0,4.0,14.0,107.0,774.0,47.0,757.0,1133.0,307.0,0.0,1021.0,26.0,240.0,10095.0,20.0,0.0,257.0,307.0,3268.0,287.0,768.0,0.0,922.0,26.0,28.0,843.0,5.0,100.0,1032.0,321.0,212.0,4200.0,431.0,249.0,129.0,1061.0,537.0,10.0,218.0,350.0,0.0,0.0,800.0,2621.0,2343.0,21206.0,2998.0,280.0,0.0,518.0,269.0,490.0,25.0,58.0,131.0,8.0,694.0,117.0,300.0,None,None,2635-S,2018.0,Sedimento
2635-W-N0507,0.0,0.0,0.0,0.0,0.0,0.0,0.0,0.0,1061.0,0.0,0.0,0.0,0.0,197.0,12555.0,0.0,0.0,0.0,0.0,0.0,38.0,24732.0,0.0,0.0,0.0,0.0,422.0,0.0,0.0,0.0,7.0,0.0,0.0,0.0,31.0,0.0,0.0,0.0,0.0,0.0,0.0,0.0,0.0,0.0,1945.0,7.0,29771.0,228.0,0.0,0.0,0.0,0.0,11810.0,0.0,0.0,0.0,0.0,0.0,0.0,23.0,None,None,2635-W,2018.0,Agua
2643-S-N0501,0.0,0.0,9.0,43.0,147.0,733.0,90.0,1304.0,1306.0,549.0,0.0,2306.0,0.0,26.0,13621.0,9.0,305.0,850.0,95.0,3826.0,517.0,858.0,416.0,3008.0,26.0,0.0,726.0,143.0,9.0,598.0,11.0,31.0,156.0,297.0,136.0,88.0,242.0,142.0,7.0,0.0,398.0,0.0,0.0,367.0,4994.0,1476.0,22423.0,2529.0,33.0,0.0,488.0,612.0,269.0,6.0,0.0,25.0,0.0,41.0,112.0,282.0,None,None,2643-S,2018.0,Sedimento
2643-W-N0508,0.0,0.0,0.0,0.0,0.0,0.0,0.0,0.0,8674.0,0.0,0.0,0.0,0.0,19.0,24471.0,0.0,0.0,0.0,0.0,0.0,0.0,977.0,0.0,19.0,0.0,0.0,79.0,0.0,0.0,9.0,0.0,0.0,0.0,0.0,0.0,0.0,0.0,0.0,0.0,0.0,0.0,0.0,0.0,31.0,3670.0,452.0,27296.0,3.0,0.0,0.0,0.0,0.0,366.0,0.0,0.0,0.0,0.0,0.0,0.0,54.0,None,None,2643-W,2018.0,Agua
2648-S-N0502,0.0,0.0,0.0,0.0,10.0,289.0,0.0,778.0,727.0,5.0,4.0,426.0,20.0,115.0,13906.0,0.0,0.0,429.0,34.0,2915.0,206.0,711.0,0.0,1865.0,56.0,42.0,1153.0,200.0,21.0,630.0,8.0,113.0,293.0,173.0,198.0,59.0,437.0,435.0,0.0,15.0,240.0,41.0,0.0,232.0,2350.0,930.0,22820.0,2120.0,220.0,0.0,785.0,389.0,442.0,2.0,17.0,0.0,0.0,282.0,51.0,156.0,None,None,2648-S,2018.0,Sedimento
2648-W-N0509,0.0,0.0,0.0,0.0,0.0,30.0,5.0,40.0,4980.0,16.0,0.0,97.0,0.0,44.0,19382.0,0.0,0.0,0.0,24.0,170.0,89.0,5575.0,0.0,17.0,0.0,0.0,704.0,0.0,19.0,347.0,22.0,33.0,317.0,38.0,23.0,39.0,9.0,21.0,0.0,0.0,44.0,0.0,0.0,86.0,3858.0,237.0,22460.0,171.0,0.0,0.0,245.0,0.0,589.0,0.0,4.0,0.0,0.0,34.0,0.0,95.0,None,None,2648-W,2018.0,Agua
2649-S-N0503,0.0,0.0,0.0,4.0,5.0,85.0,0.0,451.0,1045.0,74.0,0.0,595.0,0.0,104.0,14730.0,0.0,0.0,182.0,213.0,1882.0,268.0,260.0,0.0,2922.0,29.0,0.0,137.0,52.0,17.0,1055.0,6.0,78.0,808.0,165.0,118.0,88.0,194.0,134.0,0.0,0.0,1080.0,0.0,0.0,115.0,1853.0,1347.0,30480.0,3488.0,378.0,5.0,1058.0,594.0,809.0,0.0,0.0,8.0,0.0,44.0,18.0,60.0,None,None,2649-S,2018.0,Sedimento
2649-W-N0510,0.0,0.0,0.0,0.0,0.0,0.0,0.0,0.0,9720.0,0.0,0.0,0.0,0.0,0.0,12843.0,0.0,0.0,0.0,0.0,0.0,0.0,30.0,0.0,8.0,0.0,0.0,17.0,0.0,0.0,42.0,0.0,0.0,0.0,0.0,4.0,0.0,0.0,0.0,0.0,0.0,0.0,0.0,0.0,4.0,2609.0,341.0,16870.0,0.0,0.0,0.0,0.0,0.0,187.0,0.0,0.0,0.0,0.0,0.0,0.0,13.0,None,None,2649-W,2018.0,Agua
2650-S-N0504,0.0,0.0,13.0,0.0,36.0,139.0,0.0,165.0,356.0,21.0,9.0,97.0,0.0,106.0,13029.0,0.0,16.0,0.0,0.0,1873.0,7.0,1129.0,0.0,646.0,36.0,0.0,97.0,48.0,73.0,2884.0,0.0,145.0,4591.0,69.0,8.0,0.0,546.0,48.0,0.0,7.0,0.0,20.0,0.0,59.0,2207.0,650.0,19284.0,1342.0,0.0,0.0,1158.0,0.0,205.0,0.0,0.0,0.0,9.0,34.0,73.0,44.0,None,None,2650-S,2018.0,Sedimento
2651-S-N0505,0.0,0.0,0.0,0.0,0.0,14.0,0.0,103.0,503.0,16.0,5.0,727.0,0.0,111.0,9965.0,0.0,0.0,4.0,3.0,961.0,49.0,512.0,0.0,1890.0,0.0,5.0,434.0,0.0,137.0,2699.0,101.0,6.0,511.0,85.0,4.0,8.0,101.0,10.0,0.0,0.0,5.0,0.0,0.0,12.0,651.0,382.0,24846.0,768.0,233.0,0.0,616.0,153.0,127.0,0.0,0.0,0.0,0.0,0.0,0.0,33.0,None,None,2651-S,2018.0,Sedimento
2651-W-N0511,0.0,0.0,0.0,0.0,0.0,3.0,0.0,18.0,4075.0,0.0,0.0,0.0,0.0,9.0,18660.0,0.0,0.0,0.0,6.0,0.0,23.0,2463.0,0.0,26.0,0.0,0.0,229.0,0.0,9.0,81.0,0.0,12.0,39.0,0.0,9.0,6.0,3.0,0.0,0.0,0.0,11.0,0.0,0.0,35.0,2767.0,219.0,17864.0,34.0,0.0,0.0,35.0,19.0,250.0,0.0,0.0,0.0,0.0,0.0,0.0,53.0,None,None,2651-W,2018.0,Agua
2652-S-N0506,0.0,9.0,7.0,11.0,54.0,379.0,0.0,1527.0,524.0,386.0,0.0,2159.0,24.0,101.0,14743.0,0.0,195.0,498.0,36.0,4258.0,584.0,236.0,47.0,1859.0,24.0,40.0,334.0,133.0,42.0,1876.0,0.0,278.0,1178.0,395.0,126.0,40.0,358.0,282.0,0.0,5.0,182.0,19.0,7.0,576.0,2613.0,943.0,25782.0,2454.0,245.0,16.0,923.0,663.0,157.0,0.0,0.0,0.0,0.0,120.0,105.0,60.0,None,None,2652-S,2018.0,Sedimento
2652-W-N0512,0.0,0.0,0.0,0.0,0.0,0.0,0.0,0.0,4894.0,0.0,0.0,0.0,0.0,0.0,7805.0,0.0,0.0,0.0,0.0,0.0,7.0,142.0,0.0,0.0,0.0,0.0,15.0,0.0,0.0,20.0,0.0,0.0,19.0,0.0,0.0,0.0,0.0,0.0,0.0,0.0,0.0,0.0,0.0,0.0,1216.0,163.0,10105.0,0.0,0.0,0.0,0.0,0.0,80.0,0.0,0.0,0.0,0.0,0.0,0.0,9.0,None,None,2652-W,2018.0,Agua
